./data/general/instance_0.txt
./data/general/instance_1.txt
./data/general/instance_2.txt
./data/general/instance_3.txt
./data/general/instance_4.txt
./data/general/instance_5.txt
./data/general/instance_6.txt
./data/general/instance_7.txt
./data/general/instance_8.txt
./data/general/instance_9.txt
./data/general/instance_10.txt
./data/general/instance_11.txt
./data/general/instance_12.txt
./data/general/instance_13.txt
./data/general/instance_14.txt
./data/general/instance_15.txt
./data/general/instance_16.txt
./data/general/instance_17.txt
./data/general/instance_18.txt
./data/general/instance_19.txt
